%YAML 1.1
%TAG !u! tag:unity3d.com,2011:
--- !u!114 &11400000
MonoBehaviour:
  m_ObjectHideFlags: 0
  m_CorrespondingSourceObject: {fileID: 0}
  m_PrefabInstance: {fileID: 0}
  m_PrefabAsset: {fileID: 0}
  m_GameObject: {fileID: 0}
  m_Enabled: 1
  m_EditorHideFlags: 0
  m_Script: {fileID: 11500000, guid: a877292c63c91f24d80e41ca8be44a06, type: 3}
  m_Name: Enemy2
  m_EditorClassIdentifier: 
  m_lvl: 2
  m_name: slime
  m_exp: 16
  m_MaxHP: 60
  m_CurrentHP: 60
  m_ATTK: 3
  m_DEF: 2
  m_MaxPP: 0
  m_CurrentPP: 0
  m_SPD: 6
  m_Abilities: []
  m_sprite: {fileID: 21300000, guid: cf6f143dc62e4ec4db7345c37313a267, type: 3}
  mAnimatorController: {fileID: 9100000, guid: 036bb36df4ab16f44b9bd99acac195d8, type: 2}
  gei: {fileID: 0}
  loot: []
