%YAML 1.1
%TAG !u! tag:unity3d.com,2011:
--- !u!114 &11400000
MonoBehaviour:
  m_ObjectHideFlags: 0
  m_CorrespondingSourceObject: {fileID: 0}
  m_PrefabInstance: {fileID: 0}
  m_PrefabAsset: {fileID: 0}
  m_GameObject: {fileID: 0}
  m_Enabled: 1
  m_EditorHideFlags: 0
  m_Script: {fileID: 11500000, guid: d9b35c864e761314f97f828b5f7160d2, type: 3}
  m_Name: CofrePueblo1
  m_EditorClassIdentifier: 
  m_lvl: 0
  m_name: 
  m_exp: 0
  m_MaxHP: 0
  m_CurrentHP: 0
  m_ATTK: 0
  m_DEF: 0
  m_MaxPP: 0
  m_CurrentPP: 0
  m_SPD: 0
  m_Abilities: []
  m_sprite: {fileID: 21300000, guid: a907284b1b696c440ae615cd4c6b2f49, type: 3}
  mAnimatorController: {fileID: 0}
  items:
  - {fileID: 11400000, guid: 5538a409e1526b3498a4114d7e02dc26, type: 2}
  gei: {fileID: 11400000, guid: a259b9e0223aa85438d8b9dd8731c03c, type: 2}
  haveItem: 0
  frase: 
