%YAML 1.1
%TAG !u! tag:unity3d.com,2011:
--- !u!1045 &1
EditorBuildSettings:
  m_ObjectHideFlags: 0
  serializedVersion: 2
  m_Scenes:
  - enabled: 1
    path: Assets/Scenes/MenuPrincipal/MenuPrincipal.unity
    guid: 8c9cfa26abfee488c85f1582747f6a02
  - enabled: 1
    path: Assets/Scenes/MapaA/MapaA.unity
    guid: ffd1139906eac93439ddcd93900644b9
  - enabled: 1
    path: Assets/Scenes/MapaB/MapaB.unity
    guid: 96f9368442ed9394895013f36f3a4dc9
  - enabled: 1
    path: Assets/Scenes/Mapa0/PracticeMap.unity
    guid: 6fa163e4fe87b9e41a86268095426b98
  - enabled: 1
    path: Assets/Scenes/MapaWin/Win.unity
    guid: a6490dcd7e703f54385c3a50f5fd0592
  m_configObjects: {}
