%YAML 1.1
%TAG !u! tag:unity3d.com,2011:
--- !u!74 &7400000
AnimationClip:
  m_ObjectHideFlags: 0
  m_CorrespondingSourceObject: {fileID: 0}
  m_PrefabInstance: {fileID: 0}
  m_PrefabAsset: {fileID: 0}
  m_Name: f0
  serializedVersion: 6
  m_Legacy: 0
  m_Compressed: 0
  m_UseHighQualityCurve: 1
  m_RotationCurves: []
  m_CompressedRotationCurves: []
  m_EulerCurves: []
  m_PositionCurves: []
  m_ScaleCurves: []
  m_FloatCurves: []
  m_PPtrCurves:
  - curve:
    - time: 0
      value: {fileID: 21300000, guid: d5c9d09eb928e464e986fb92123ca858, type: 3}
    - time: 0.1
      value: {fileID: 21300000, guid: af16116c7033e7843bed00427028a9eb, type: 3}
    - time: 0.21666667
      value: {fileID: 21300000, guid: a4f78f632237b3140a4207d9c0a47b41, type: 3}
    - time: 0.31666666
      value: {fileID: 21300000, guid: 70d108e39ee0b7e4696f4bd0b50aabf0, type: 3}
    - time: 0.43333334
      value: {fileID: 21300000, guid: d539d719c079b584c8c0991cacffc597, type: 3}
    - time: 0.53333336
      value: {fileID: 21300000, guid: e650a7c6a46a1024d91a3e2b92bfba7d, type: 3}
    - time: 0.65
      value: {fileID: 21300000, guid: f67768ad5efedbf468eb701c4ab7d291, type: 3}
    - time: 0.75
      value: {fileID: 21300000, guid: e650a7c6a46a1024d91a3e2b92bfba7d, type: 3}
    - time: 0.85
      value: {fileID: 21300000, guid: 403a7aad44c8f2b42aaa1b77e8ef20fa, type: 3}
    - time: 0.96666664
      value: {fileID: 21300000, guid: d539d719c079b584c8c0991cacffc597, type: 3}
    - time: 1.0666667
      value: {fileID: 21300000, guid: d5c9d09eb928e464e986fb92123ca858, type: 3}
    - time: 1.1833333
      value: {fileID: 21300000, guid: e650a7c6a46a1024d91a3e2b92bfba7d, type: 3}
    - time: 1.2833333
      value: {fileID: 21300000, guid: d539d719c079b584c8c0991cacffc597, type: 3}
    - time: 1.4
      value: {fileID: 21300000, guid: a4f78f632237b3140a4207d9c0a47b41, type: 3}
    - time: 1.5
      value: {fileID: 21300000, guid: af16116c7033e7843bed00427028a9eb, type: 3}
    attribute: m_Sprite
    path: 
    classID: 212
    script: {fileID: 0}
  m_SampleRate: 60
  m_WrapMode: 0
  m_Bounds:
    m_Center: {x: 0, y: 0, z: 0}
    m_Extent: {x: 0, y: 0, z: 0}
  m_ClipBindingConstant:
    genericBindings:
    - serializedVersion: 2
      path: 0
      attribute: 0
      script: {fileID: 0}
      typeID: 212
      customType: 23
      isPPtrCurve: 1
    pptrCurveMapping:
    - {fileID: 21300000, guid: d5c9d09eb928e464e986fb92123ca858, type: 3}
    - {fileID: 21300000, guid: af16116c7033e7843bed00427028a9eb, type: 3}
    - {fileID: 21300000, guid: a4f78f632237b3140a4207d9c0a47b41, type: 3}
    - {fileID: 21300000, guid: 70d108e39ee0b7e4696f4bd0b50aabf0, type: 3}
    - {fileID: 21300000, guid: d539d719c079b584c8c0991cacffc597, type: 3}
    - {fileID: 21300000, guid: e650a7c6a46a1024d91a3e2b92bfba7d, type: 3}
    - {fileID: 21300000, guid: f67768ad5efedbf468eb701c4ab7d291, type: 3}
    - {fileID: 21300000, guid: e650a7c6a46a1024d91a3e2b92bfba7d, type: 3}
    - {fileID: 21300000, guid: 403a7aad44c8f2b42aaa1b77e8ef20fa, type: 3}
    - {fileID: 21300000, guid: d539d719c079b584c8c0991cacffc597, type: 3}
    - {fileID: 21300000, guid: d5c9d09eb928e464e986fb92123ca858, type: 3}
    - {fileID: 21300000, guid: e650a7c6a46a1024d91a3e2b92bfba7d, type: 3}
    - {fileID: 21300000, guid: d539d719c079b584c8c0991cacffc597, type: 3}
    - {fileID: 21300000, guid: a4f78f632237b3140a4207d9c0a47b41, type: 3}
    - {fileID: 21300000, guid: af16116c7033e7843bed00427028a9eb, type: 3}
  m_AnimationClipSettings:
    serializedVersion: 2
    m_AdditiveReferencePoseClip: {fileID: 0}
    m_AdditiveReferencePoseTime: 0
    m_StartTime: 0
    m_StopTime: 1.5166667
    m_OrientationOffsetY: 0
    m_Level: 0
    m_CycleOffset: 0
    m_HasAdditiveReferencePose: 0
    m_LoopTime: 1
    m_LoopBlend: 0
    m_LoopBlendOrientation: 0
    m_LoopBlendPositionY: 0
    m_LoopBlendPositionXZ: 0
    m_KeepOriginalOrientation: 0
    m_KeepOriginalPositionY: 1
    m_KeepOriginalPositionXZ: 0
    m_HeightFromFeet: 0
    m_Mirror: 0
  m_EditorCurves: []
  m_EulerEditorCurves: []
  m_HasGenericRootTransform: 0
  m_HasMotionFloatCurves: 0
  m_Events: []
